4215844900000001|000201000|00001000|0000100|Visa
4444844900000001|000010000|00001000|0000100|Visa
5222844900000002|000020000|00001500|0000150|Mastercard
3565844900000003|000100000|00020000|0000200|JCB
3565844900000003|000100000|00020000|0000200|JCB
3565844900000003|000100000|00020000|0000200|JCB
5232844900000556|000020000|00001500|0000250|Mastercard
5232844900000556|000020000|00001500|0000150|Mastercard
5222844900000556|000020000|00001500|0000250|Mastercard
3565844900000003|000100000|00020000|0000200|JCB
4215844900000001|000010000|00001000|0000200|Visa
4444844900000001|000010000|00001000|0000100|Visa
5222844900000002|000020000|00001500|0000150|Mastercard
3565774900023003|000100000|00020000|0000200|JCB
4215844900000001|000010000|00001000|0000250|Visa
4444844900000001|000010000|00001000|0000100|Visa
5222844900000002|000020000|00001500|0000150|Mastercard
3565774900023003|000100000|00020000|0000200|JCB
